,,,,,,, Day   Starting time (in hours)  Course Name   Lecture/Exercise/Praktikum/Seminar/Hybrid  Hoenggerberg/Zentrum Semester  Primary Key  Room

,,,,,,, Lectures -

Mon,8,Physikalische Chemie III - Molekulare Quentenmechanik,Lecture,H,4,HCI G 3 
Mon,8,Physikalische Chemie III - Molekulare Quentenmechanik,Hand-in,H,4,HCI G 3 
Mon,9,Physik II,Lecture,H,4,HPH G 1 
Mon,10,Analytische Chemie II,Lecture,H,4,HCI J 7 
Mon,11,Analytische Chemie II,Lecture,H,4,HCI J 7 

Tue,9,Physikalische Chemie III - Molekulare Quentenmechanik,Exercise,H,4,HCI J 243 
Tue,10,Chemieingenieurwissenschaften,Exercise,H,4,HCI J 6 
Tue,11,Physikalische Chemie III - Molekulare Quentenmechanik,Lecture,H,4,HCI G 7 
Tue,12,Physikalische Chemie III - Molekulare Quentenmechanik,Lecture,H,4,HCI G 7 
Mon,12,Organic Chemistry II,Hand-in,H,4,HCI F314
Tue,18,Inorganic Chemistry II,Hand-in,H,4,HCI H102

Wed,8,Organic Chemistry II,Lecture,H,4,HCI J7
Wed,9,Organic Chemistry II,Lecture,H,4,HCI J7
Wed,10,Physik II,Exercise,H,4,HCI F2
Wed,10,Physik II,Hand-in,H,4,HCI F2
Wed,11,Inorganic Chemistry II,Exercse,H,4,HCP E 47.3
Wed,14,Physik II,Lecture,H,4,HPH G1
Wed,15,Physik II,Lecture,H,4,HPH G1

Thu,8,Inorganic Chemistry II,Lecture,H,4,HCI J 7
Thu,9,Inorganic Chemistry II,Lecture,H,4,HCI J 7
Thu,10,Organic Chemistry II,Exercise,H,4,HCI J 8
Thu,11,Analytische Chemie,Spektrenübung,H,4,HCI J 7
Thu,12,Analytische Chemie,Spektrenübung,H,4,HCI J 7
Thu,13,Analytische Chemie,Praktikum,H,4,HCI ??
Thu,14,Analytische Chemie,Praktikum,H,4,HCI ??
Thu,15,Analytische Chemie,Praktikum,H,4,HCI ??
Thu,16,Analytische Chemie,Praktikum,H,4,HCI ??

Fri,9,Analytische Chemie II - Elementanalytik,Lecture,H,4,HCI J 7
Fri,9,Analytische Chemie II - Elementanalytik,Hand-in,H,4,HCI J 7
Fri,10,Chemieingenieurwissenschaften,Lecture,H,4,HCI J 6
Fri,10,Chemieingenieurwissenschaften,Hand-in,H,4,HCI J 6
Fri,13,Analytische Chemie,Praktikum,H,4,HCI ??
Fri,14,Analytische Chemie,Praktikum,H,4,HCI ??
Fri,15,Analytische Chemie,Praktikum,H,4,HCI ??
Fri,16,Analytische Chemie,Praktikum,H,4,HCI ??

